EE1501_DSLab/project/traffic_light/traffic_light.vcd
$date
	Tue May  6 17:15:42 2025
$end
$version
	Icarus Verilog
$end
$timescale
	1ms
$end
$scope module traffic_light_tb $end
$var wire 1 ! buzzer $end
$var wire 8 " T2_state [7:0] $end
$var wire 1 # T2_WALK $end
$var wire 2 $ T2 [1:0] $end
$var wire 8 % T1_state [7:0] $end
$var wire 1 & T1_WALK $end
$var wire 2 ' T1 [1:0] $end
$var reg 1 ( Emergency_Left $end
$var reg 1 ) Emergency_Right $end
$var reg 1 * clk $end
$var reg 32 + cycle [31:0] $end
$var reg 1 , reset $end
$scope module uut $end
$var wire 1 ( Emergency_Left $end
$var wire 1 ) Emergency_Right $end
$var wire 1 * clk $end
$var wire 1 , reset $end
$var parameter 3 - S1 $end
$var parameter 3 . S2 $end
$var parameter 3 / S3 $end
$var parameter 3 0 S4 $end
$var parameter 3 1 S5 $end
$var parameter 3 2 S6 $end
$var parameter 3 3 S7 $end
$var reg 2 4 T1 [1:0] $end
$var reg 1 & T1_WALK $end
$var reg 2 5 T2 [1:0] $end
$var reg 1 # T2_WALK $end
$var reg 1 ! buzzer $end
$var reg 4 6 buzzer_timer [3:0] $end
$var reg 3 7 current_state [2:0] $end
$var reg 3 8 next_state [2:0] $end
$var reg 7 9 timer [6:0] $end
$upscope $end
$upscope $end
$enddefinitions $end
$comment Show the parameter values. $end
$dumpall
b111 3
b110 2
b101 1
b100 0
b11 /
b10 .
b1 -
$end
#0
$dumpvars
b0 9
b10 8
b1 7
b0 6
bx 5
bx 4
1,
b0 +
0*
0)
0(
bx '
x&
b0xxxxxxx %
bx $
x#
b0xxxxxxx "
x!
$end
#500
1*
#1000
0*
0,
#1500
b1010010 "
b1000111 %
b1 9
0!
0#
0&
b10 $
b10 5
b0 '
b0 4
1*
#2000
0*
b1 +
#2500
b10 9
1*
#3000
0*
b10 +
#3500
b11 9
1*
#4000
0*
b11 +
#4500
b100 9
1*
#5000
0*
b100 +
#5500
b101 9
1*
#6000
0*
b101 +
#6500
b110 9
1*
#7000
0*
b110 +
#7500
b111 9
1*
#8000
0*
b111 +
#8500
b1000 9
1*
#9000
0*
b1000 +
#9500
b1001 9
1*
#10000
0*
b1001 +
#10500
b1010 9
1*
#11000
0*
1(
b1010 +
#11500
b11 8
b1000111 "
b1010010 %
b10 7
b0 9
b0 $
b0 5
b10 '
b10 4
1*
#12000
0*
b1011 +
#12500
b1 9
1*
#13000
0*
b1100 +
#13500
b10 9
1*
#14000
0*
b1101 +
#14500
b11 9
1*
#15000
0*
b1110 +
#15500
b100 9
1*
#16000
0*
b1111 +
#16500
b101 9
1*
#17000
0*
b10000 +
#17500
b110 9
1*
#18000
0*
b10001 +
#18500
b111 9
1*
#19000
0*
b10010 +
#19500
b1000 9
1*
#20000
0*
b10011 +
#20500
b1001 9
1*
#21000
0*
0(
b10100 +
#21500
b1011001 %
b100 8
b1010010 "
b11 7
b0 9
b10 $
b10 5
b1 '
b1 4
1*
#22000
0*
b10101 +
#22500
b1010010 %
b1 9
1#
1&
b10 '
b10 4
1*
#23000
0*
b10110 +
#23500
b10 9
1*
#24000
0*
b10111 +
#24500
b11 9
1*
#25000
0*
b11000 +
#25500
b100 9
1*
#26000
0*
b11001 +
#26500
b101 9
1*
#27000
0*
b11010 +
#27500
b110 9
1*
#28000
0*
b11011 +
#28500
b111 9
1*
#29000
0*
b11100 +
#29500
b1000 9
1*
#30000
0*
b11101 +
#30500
b1001 9
1*
#31000
0*
b11110 +
#31500
b1010 9
1*
#32000
0*
b11111 +
#32500
b1011 9
1*
#33000
0*
b100000 +
#33500
b1100 9
1*
#34000
0*
b100001 +
#34500
b1101 9
1*
#35000
0*
b100010 +
#35500
b1110 9
1*
#36000
0*
b100011 +
#36500
b1111 9
1*
#37000
0*
b100100 +
#37500
b10000 9
1*
#38000
0*
b100101 +
#38500
b10001 9
1*
#39000
0*
b100110 +
#39500
b10010 9
1*
#40000
0*
b100111 +
#40500
b10011 9
1*
#41000
0*
b101000 +
#41500
b10100 9
1*
#42000
0*
b101001 +
#42500
b10101 9
1*
#43000
0*
b101010 +
#43500
b10110 9
1*
#44000
0*
b101011 +
#44500
b10111 9
1*
#45000
0*
b101100 +
#45500
b11000 9
1*
#46000
0*
b101101 +
#46500
b11001 9
1*
#47000
0*
b101110 +
#47500
b11010 9
1*
#48000
0*
b101111 +
#48500
b11011 9
1*
#49000
0*
b110000 +
#49500
b11100 9
1*
#50000
0*
b110001 +
#50500
b11101 9
1*
#51000
0*
1)
b110010 +
#51500
b101 8
b100 7
b0 9
0#
0&
1*
#52000
0*
b110011 +
#52500
b1 9
1*
#53000
0*
b110100 +
#53500
b10 9
1*
#54000
0*
b110101 +
#54500
b11 9
1*
#55000
0*
b110110 +
#55500
b100 9
1*
#56000
0*
b110111 +
#56500
b101 9
1*
#57000
0*
b111000 +
#57500
b110 9
1*
#58000
0*
b111001 +
#58500
b111 9
1*
#59000
0*
b111010 +
#59500
b1000 9
1*
#60000
0*
b111011 +
#60500
b1001 9
1*
#61000
0*
0)
b111100 +
#61500
b1010 9
1#
1&
1*
#62000
0*
b111101 +
#62500
b1011 9
1*
#63000
0*
b111110 +
#63500
b1100 9
1*
#64000
0*
b111111 +
#64500
b1101 9
1*
#65000
0*
b1000000 +
#65500
b1110 9
1*
#66000
0*
b1000001 +
#66500
b1111 9
1*
#67000
0*
b1000010 +
#67500
b10000 9
1*
#68000
0*
b1000011 +
#68500
b10001 9
1*
#69000
0*
b1000100 +
#69500
b10010 9
1*
#70000
0*
b1000101 +
#70500
b10011 9
1*
#71000
0*
b1000110 +
#71500
b10100 9
1*
#72000
0*
b1000111 +
#72500
b10101 9
1*
#73000
0*
b1001000 +
#73500
b10110 9
1*
#74000
0*
b1001001 +
#74500
b10111 9
1*
#75000
0*
b1001010 +
#75500
b11000 9
1*
#76000
0*
b1001011 +
#76500
b11001 9
1*
#77000
0*
b1001100 +
#77500
b11010 9
1*
#78000
0*
b1001101 +
#78500
b11011 9
1*
#79000
0*
b1001110 +
#79500
b11100 9
1*
#80000
0*
b1001111 +
#80500
b11101 9
1*
#81000
0*
b1010000 +
#81500
b11110 9
1*
#82000
0*
b1010001 +
#82500
b11111 9
1*
#83000
0*
b1010010 +
#83500
b100000 9
1*
#84000
0*
b1010011 +
#84500
b100001 9
1*
#85000
0*
b1010100 +
#85500
b100010 9
1*
#86000
0*
b1010101 +
#86500
b100011 9
1*
#87000
0*
b1010110 +
#87500
b100100 9
1*
#88000
0*
b1010111 +
#88500
b100101 9
1*
#89000
0*
b1011000 +
#89500
b100110 9
1*
#90000
0*
b1011001 +
#90500
b100111 9
1*
#91000
0*
b1011010 +
#91500
b101000 9
1*
#92000
0*
b1011011 +
#92500
b101001 9
1*
#93000
0*
b1011100 +
#93500
b101010 9
1*
#94000
0*
b1011101 +
#94500
b101011 9
1*
#95000
0*
b1011110 +
#95500
b101100 9
1*
#96000
0*
b1011111 +
#96500
b101101 9
1*
#97000
0*
b1100000 +
#97500
b101110 9
1*
#98000
0*
b1100001 +
#98500
b101111 9
1*
#99000
0*
b1100010 +
#99500
b110000 9
1*
#100000
0*
b1100011 +
#100500
b110001 9
1*
#101000
0*
b1100100 +
#101500
b110010 9
1*
#102000
0*
b1100101 +
#102500
b110011 9
1*
#103000
0*
b1100110 +
#103500
b110100 9
1*
#104000
0*
b1100111 +
#104500
b110101 9
1*
#105000
0*
b1101000 +
#105500
b110110 9
1*
#106000
0*
b1101001 +
#106500
b110111 9
1*
#107000
0*
b1101010 +
#107500
b110 8
b101 7
b0 9
1*
#108000
0*
b1101011 +
#108500
b1000111 "
b1 9
0#
0&
b0 $
b0 5
1*
#109000
0*
b1101100 +
#109500
b10 9
1*
#110000
0*
b1101101 +
#110500
b11 9
1*
#111000
0*
1(
b1101110 +
#111500
b100 9
1*
#112000
0*
b1101111 +
#112500
b101 9
1*
#113000
0*
b1110000 +
#113500
b110 9
1*
#114000
0*
b1110001 +
#114500
b111 9
1*
#115000
0*
b1110010 +
#115500
b1000 9
1*
#116000
0*
b1110011 +
#116500
b1001 9
1*
#117000
0*
b1110100 +
#117500
b1010 9
1*
#118000
0*
b1110101 +
#118500
b111 8
b110 7
b0 9
1*
#119000
0*
b1110110 +
#119500
b1 9
1*
#120000
0*
b1110111 +
#120500
b10 9
1*
#121000
0*
0(
b1111000 +
#121500
b1011001 "
b11 9
b1 $
b1 5
1*
#122000
0*
b1111001 +
#122500
b100 9
1*
#123000
0*
b1111010 +
#123500
b101 9
1*
#124000
0*
b1111011 +
#124500
b1 8
b111 7
b0 9
1*
#125000
0*
b1111100 +
#125500
b1010010 "
b1000111 %
b1 9
b10 $
b10 5
b0 '
b0 4
1*
#126000
0*
b1111101 +
#126500
b10 9
1*
#127000
0*
b1111110 +
#127500
b11 9
1*
#128000
0*
b1111111 +
#128500
b100 9
1*
#129000
0*
b10000000 +
#129500
b101 9
1*
#130000
0*
b10000001 +
#130500
b110 9
1*
#131000
0*
b10000010 +
#131500
b111 9
1*
#132000
0*
b10000011 +
#132500
b1000 9
1*
#133000
0*
b10000100 +
#133500
b1001 9
1*
#134000
0*
b10000101 +
#134500
b1010 9
1*
#135000
0*
b10000110 +
#135500
b1011 9
1*
#136000
0*
b10000111 +
#136500
b1100 9
1*
#137000
0*
b10001000 +
#137500
b1101 9
1*
#138000
0*
b10001001 +
#138500
b1110 9
1*
#139000
0*
b10001010 +
#139500
b1111 9
1*
#140000
0*
b10001011 +
#140500
b10000 9
1*
#141000
0*
b10001100 +
#141500
b10001 9
1*
#142000
0*
b10001101 +
#142500
b10010 9
1*
#143000
0*
b10001110 +
#143500
b10011 9
1*
#144000
0*
b10001111 +
#144500
b10100 9
1*
#145000
0*
b10010000 +
#145500
b10101 9
1*
#146000
0*
b10010001 +
#146500
b10110 9
1*
#147000
0*
b10010010 +
#147500
b10111 9
1*
#148000
0*
b10010011 +
#148500
b11000 9
1*
#149000
0*
b10010100 +
#149500
b11001 9
1*
#150000
0*
b10010101 +
#150500
b11010 9
1*
#151000
0*
1)
b10010110 +
#151500
b10 8
b1010010 %
b1 7
b0 9
b10 '
b10 4
1*
#152000
0*
b10010111 +
#152500
b1 9
1*
#153000
0*
b10011000 +
#153500
b10 9
1*
#154000
0*
b10011001 +
#154500
b11 9
1*
#155000
0*
b10011010 +
#155500
b100 9
1*
#156000
0*
b10011011 +
#156500
b101 9
1*
#157000
0*
b10011100 +
#157500
b110 9
1*
#158000
0*
b10011101 +
#158500
b111 9
1*
#159000
0*
b10011110 +
#159500
b1000 9
1*
#160000
0*
b10011111 +
#160500
b1001 9
1*
#161000
0*
0)
b10100000 +
#161500
b1000111 %
b1010 9
b0 '
b0 4
1*
#162000
0*
b10100001 +
#162500
b1011 9
1*
#163000
0*
b10100010 +
#163500
b1100 9
1*
#164000
0*
b10100011 +
#164500
b1101 9
1*
#165000
0*
b10100100 +
#165500
b1110 9
1*
#166000
0*
b10100101 +
#166500
b1111 9
1*
#167000
0*
b10100110 +
#167500
b10000 9
1*
#168000
0*
b10100111 +
#168500
b10001 9
1*
#169000
0*
b10101000 +
#169500
b10010 9
1*
#170000
0*
b10101001 +
#170500
b10011 9
1*
#171000
0*
b10101010 +
#171500
b10100 9
1*
#172000
0*
b10101011 +
#172500
b10101 9
1*
#173000
0*
b10101100 +
#173500
b10110 9
1*
#174000
0*
b10101101 +
#174500
b10111 9
1*
#175000
0*
b10101110 +
#175500
b11000 9
1*
#176000
0*
b10101111 +
#176500
b11001 9
1*
#177000
0*
b10110000 +
#177500
b11010 9
1*
#178000
0*
b10110001 +
#178500
b11011 9
1*
#179000
0*
b10110010 +
#179500
b11100 9
1*
#180000
0*
b10110011 +
#180500
b11101 9
1*
#181000
0*
b10110100 +
#181500
b11110 9
1*
#182000
0*
b10110101 +
#182500
b11 8
b10 7
b0 9
1*
#183000
0*
b10110110 +
#183500
b1011001 %
b1 9
b1 '
b1 4
1*
#184000
0*
b10110111 +
#184500
b10 9
1*
#185000
0*
b10111000 +
#185500
b11 9
1*
#186000
0*
b10111001 +
#186500
b100 9
1*
#187000
0*
b10111010 +
#187500
b101 9
1*
#188000
0*
b10111011 +
#188500
b100 8
b11 7
b0 9
1*
#189000
0*
b10111100 +
#189500
b1010010 %
b1 9
1#
1&
b10 '
b10 4
1*
#190000
0*
b10111101 +
#190500
b10 9
1*
#191000
0*
b10111110 +
#191500
b11 9
1*
#192000
0*
b10111111 +
#192500
b100 9
1*
#193000
0*
b11000000 +
#193500
b101 9
1*
#194000
0*
b11000001 +
#194500
b110 9
1*
#195000
0*
b11000010 +
#195500
b111 9
1*
#196000
0*
b11000011 +
#196500
b1000 9
1*
#197000
0*
b11000100 +
#197500
b1001 9
1*
#198000
0*
b11000101 +
#198500
b1010 9
1*
#199000
0*
b11000110 +
#199500
b1011 9
1*
#200000
0*
b11000111 +
#200500
b1100 9
1*
#201000
0*
b11001000 +
#201500
b1101 9
1*
#202000
0*
b11001001 +
#202500
b1110 9
1*
#203000
0*
b11001010 +
#203500
b1111 9
1*
#204000
0*
b11001011 +
#204500
b10000 9
1*
#205000
0*
b11001100 +
#205500
b10001 9
1*
#206000
0*
b11001101 +
#206500
b10010 9
1*
#207000
0*
b11001110 +
#207500
b10011 9
1*
#208000
0*
b11001111 +
#208500
b10100 9
1*
#209000
0*
b11010000 +
#209500
b10101 9
1*
#210000
0*
b11010001 +
#210500
b10110 9
1*
#211000
0*
b11010010 +
